<?xml version="1.0"?>
<robot xmlns:xacro="http://www.ros.org/wiki/xacro" name="little_helper">

  <xacro:include filename="$(find little_helper_description)/urdf/common/util_defs.xacro" /> 
  <xacro:include filename="$(find little_helper_description)/urdf/gazebo.urdf.xacro"/> 
  <!-- Load the parameters -->
  <!-- this file is missing: <xacro:include filename="$(find little_helper_description)/calibration/cph_cal.xml"/>-->
  <xacro:include filename="$(find little_helper_description)/calibration/$(env ROBOT)_cal.xacro"/> 
  <!-- Load robot macros -->
  <xacro:include filename="$(find little_helper_description)/urdf/neobotix_mp655.urdf.xacro"/>
  <xacro:include filename="$(find little_helper_description)/urdf/common/sick_s300_laser.urdf.xacro" />
  <xacro:include filename="$(find little_helper_description)/urdf/kuka_lwr_arm.urdf.xacro"/>
  <xacro:include filename="$(find little_helper_description)/urdf/kinect.urdf.xacro"/>
  <xacro:include filename="$(find little_helper_description)/urdf/schunk_wsg50.urdf.xacro"/>
 
  <!-- Insert the Neobotix base -->
    <!-- Spawn the base -->
  <neobotix_base name="base">
    <origin xyz="0 0 0" rpy="0 0 0"/>
  </neobotix_base>

  <!-- Spawn the laser scanners -->
  <sick_s300_laser_v0 name="laserfront" parent="base" ros_topic="scan_front/scan" update_rate="5" min_angle="${laser_front_min_angle}" max_angle="${laser_front_max_angle}" >
   <origin xyz="${laser_front_x} ${laser_front_y} ${laser_front_z}"
           rpy="${laser_front_roll} ${laser_front_pitch} ${laser_front_yaw}"/>
  </sick_s300_laser_v0>
  
  <sick_s300_laser_v0 name="laserback" parent="base" ros_topic="scan_back/scan" update_rate="5" min_angle="${laser_back_min_angle}" max_angle="${laser_back_max_angle*M_PI}" >
   <origin xyz="${laser_back_x} ${laser_back_y} ${laser_back_z}"
           rpy="${laser_back_roll} ${laser_back_pitch} ${laser_back_yaw}"/>
  </sick_s300_laser_v0>
  
  <!-- Insert the KUKA LWR -->
  <kuka_lwr_arm parent="base_link" name="lwr" right="-1" tool_name="_angle">
    <origin xyz="${cal_base_to_lwr_arm_xyz}" rpy="${cal_base_to_lwr_arm_rpy}"/>
  </kuka_lwr_arm>

  <!-- attach the gripper -->
  <schunk_wsg50 parent="lwr_arm_7_link">
    <origin xyz="${cal_lwr_to_gripper_xyz}" rpy="${cal_lwr_to_gripper_rpy}"/>
  </schunk_wsg50>
    <!-- box gripper -->
<!--  <joint name="box_gripper_joint" type="fixed">
    <parent link="lwr_arm_7_link"/>
    <child link="box_gripper"/>
    <origin xyz="${cal_lwr_to_gripper_xyz}" rpy="${cal_lwr_to_gripper_rpy}"/>
  </joint>
  <link name="box_gripper">
    <visual>
      <origin xyz="0 0 -0.08" rpy=" 0 0 0"/>
      <geometry>
        <mesh filename="package://little_helper_meshes/meshes/box_gripper.dae"/>
      </geometry>
      <material name="Grey"/>
    </visual>
      
  </link>
-->  
  <!-- Insert the chassis between the LWR and the platform -->
  <link name="chassis">
    <visual>
        <origin xyz="0 0 0" rpy="0 0 0"/>
        <geometry>
            <mesh filename="package://little_helper_meshes/meshes/chassis/$(env ROBOT)_chassis.dae"/>
        </geometry>
    </visual>
    <!-- disabled mesh collision 
    <collision>
        <origin xyz="0 0 0" rpy="0 0 0"/>
        <geometry>
            <mesh filename="package://little_helper_meshes/meshes/chassis/$(env ROBOT)_chassis.dae"/>
        </geometry>
    </collision>
  </link>
-->

  <!-- OLD CHASSIS (VISUALLY A BOX) 
  <link name="chassis">
    <visual>
      <origin xyz="0 0 ${chassis_size_z * 0.5}" rpy=" 0 0 0"/>
      <geometry>
        <box size="${chassis_size_x} ${chassis_size_y} ${chassis_size_z}"/>
      </geometry>
      <material name="Grey"/>
    </visual>
      -->
    <collision>
      <origin xyz="0 0 ${chassis_size_z * 0.5 + base_offset_z}" rpy="0 0 0"/>
      <geometry>
        <box size="${chassis_size_x + 0.2} ${chassis_size_y + 0.05} ${chassis_size_z}"/>
      </geometry>
    </collision>
  </link>

  <joint name="base_to_chassis" type="fixed">
    <parent link="base_link"/>
    <child link="chassis"/>
    <origin xyz="0 0 ${base_size_z}"/>
  </joint>
  
  <!-- kinect pole -->
<!--  <link name="kinect_pole">
    <visual>
      <origin xyz="0 0 0.500" rpy=" 0 0 0"/>
      <geometry>
        <box size="0.030 0.030 1.000"/>
      </geometry>
      <material name="DarkGrey"/>
    </visual>
      
    <collision>
      <origin xyz="0 0 500" rpy="0 0 0"/>
      <geometry>
        <box size="0.030 0.030 1.000"/>
      </geometry>
    </collision>
  </link>
  
  <joint name="chassis_to_pole" type="fixed">
    <parent link="chassis"/>
    <child link="kinect_pole"/>
    <origin xyz="-0.3125 -0.240 0.485"/>
  </joint>
  
  -->

  <!-- Insert the Kinect -->
  <kinect parent_link="${kinect_parent_name}">
    <origin xyz="${cal_kinect_x} ${cal_kinect_y} ${cal_kinect_z}" 
            rpy="${cal_kinect_roll} ${cal_kinect_pitch} ${cal_kinect_yaw}"/>
  </kinect> 


</robot>
